{
    "code": "0",
    "result": {
        "data": [
            {
                "instant": "",
                "project": "hello-dolphin",
                "projectName": "",
                "respCnt": "0",
                "statusCode": "3xx",
                "uri": ""
            },
            {
                "instant": "",
                "project": "hello-dolphin",
                "projectName": "2",
                "respCnt": "0",
                "statusCode": "3xx",
                "uri": ""
            },
            {
                "instant": "",
                "project": "hello-dolphin",
                "projectName": "",
                "respCnt": "0",
                "statusCode": "3xx",
                "uri": ""
            },
            {
                "instant": "",
                "project": "hello-dolphin",
                "projectName": "1",
                "respCnt": "0",
                "statusCode": "3xx",
                "uri": ""
            },
            {
                "instant": "",
                "project": "hello-dolphin",
                "projectName": "",
                "respCnt": "0",
                "statusCode": "3xx",
                "uri": "2"
            },
            {
                "instant": "",
                "project": "hello-dolphin",
                "projectName": "",
                "respCnt": "0",
                "statusCode": "3xx",
                "uri": "1"
            },
            {
                "instant": "",
                "project": "hello-dolphin",
                "projectName": "",
                "respCnt": "0",
                "statusCode": "3xx",
                "uri": ""
            },
            {
                "instant": "",
                "project": "hello-dolphin",
                "projectName": "",
                "respCnt": "0",
                "statusCode": "3xx",
                "uri": ""
            },
            {
                "instant": "",
                "project": "hello-dolphin",
                "projectName": "",
                "respCnt": "0",
                "statusCode": "3xx",
                "uri": ""
            },
            {
                "instant": "",
                "project": "hello-dolphin",
                "projectName": "",
                "respCnt": "0",
                "statusCode": "3xx",
                "uri": ""
            }
        ],
        "pageNo": 0,
        "pageSize": 10,
        "total": 145,
        "totalPages": 15
    },
    "status": 200,
    "timestamp": 1543919578779
}
