{
    "code":"0",
    "result":{
        "data":[
            {
                "baseImage":"",
                "createDeptCode":"",
                "createDeptName":"",
                "createTime":0,
                "creatorCode":"",
                "creatorName":"",
                "deployEnv":"test",
                "deployStatus":5,
                "desireDeployId":"f2baa8acacd1477a8849834544f5b069",
                "emails":"",
                "env":"",
                "id":"33843ae2aa6b49d39a1ad67daa065f32",
                "instanceNumber":0,
                "ipAlias":"",
                "lastDeploy":null,
                "lastDeployId":"",
                "mark":"cloud-rbac",
                "memorySize":0,
                "message":"",
                "name":"统一权限",
                "pageNo":0,
                "pageSize":0,
                "path":"",
                "runState":0,
                "state":8,
                "stateTxt":"初始",
                "status":null,
                "updateTime":0,
                "updaterCode":"",
                "updaterName":"",
                "uploadType":0,
                "version":"",
                "whiteList":""
            },
            {
                "baseImage":"",
                "createDeptCode":"",
                "createDeptName":"",
                "createTime":0,
                "creatorCode":"",
                "creatorName":"",
                "deployEnv":"test",
                "deployStatus":0,
                "desireDeployId":"",
                "emails":"",
                "env":"",
                "id":"af0e749a4cd5445295390b7db0f3df1d",
                "instanceNumber":0,
                "ipAlias":"",
                "lastDeploy":null,
                "lastDeployId":"",
                "mark":"a122",
                "memorySize":0,
                "message":"",
                "name":"s222",
                "pageNo":0,
                "pageSize":0,
                "path":"",
                "runState":0,
                "state":5,
                "stateTxt":"初始",
                "status":null,
                "updateTime":0,
                "updaterCode":"",
                "updaterName":"",
                "uploadType":0,
                "version":"",
                "whiteList":""
            },
            {
                "baseImage":"",
                "createDeptCode":"",
                "createDeptName":"",
                "createTime":0,
                "creatorCode":"",
                "creatorName":"",
                "deployEnv":"test",
                "deployStatus":0,
                "desireDeployId":"",
                "emails":"",
                "env":"",
                "id":"54b72b5028d647558fc480adfb1758a1",
                "instanceNumber":0,
                "ipAlias":"",
                "lastDeploy":null,
                "lastDeployId":"",
                "mark":"a111",
                "memorySize":0,
                "message":"",
                "name":"11",
                "pageNo":0,
                "pageSize":0,
                "path":"",
                "runState":0,
                "state":5,
                "stateTxt":"初始",
                "status":null,
                "updateTime":0,
                "updaterCode":"",
                "updaterName":"",
                "uploadType":0,
                "version":"",
                "whiteList":""
            },
            {
                "baseImage":"",
                "createDeptCode":"",
                "createDeptName":"",
                "createTime":0,
                "creatorCode":"",
                "creatorName":"",
                "deployEnv":"test",
                "deployStatus":2,
                "desireDeployId":"d4d432e45248456c914e1648452e15c1",
                "emails":"",
                "env":"",
                "id":"716b9bf259924c598cf3582908721920",
                "instanceNumber":0,
                "ipAlias":"",
                "lastDeploy":null,
                "lastDeployId":"",
                "mark":"kisp-front-v1",
                "memorySize":0,
                "message":"",
                "name":"智慧街道前端",
                "pageNo":0,
                "pageSize":0,
                "path":"",
                "runState":0,
                "state":5,
                "stateTxt":"初始",
                "status":null,
                "updateTime":0,
                "updaterCode":"",
                "updaterName":"",
                "uploadType":0,
                "version":"",
                "whiteList":""
            },
            {
                "baseImage":"",
                "createDeptCode":"",
                "createDeptName":"",
                "createTime":0,
                "creatorCode":"",
                "creatorName":"",
                "deployEnv":"test",
                "deployStatus":0,
                "desireDeployId":"",
                "emails":"",
                "env":"",
                "id":"00d95e49d5514f73ad43dab8b79bb883",
                "instanceNumber":0,
                "ipAlias":"",
                "lastDeploy":null,
                "lastDeployId":"",
                "mark":"kfront-icmp-server-web",
                "memorySize":0,
                "message":"",
                "name":"智慧社区后台V2",
                "pageNo":0,
                "pageSize":0,
                "path":"",
                "runState":0,
                "state":5,
                "stateTxt":"初始",
                "status":null,
                "updateTime":0,
                "updaterCode":"",
                "updaterName":"",
                "uploadType":0,
                "version":"",
                "whiteList":""
            },
            {
                "baseImage":"dolphin/nginx:1.13",
                "createDeptCode":"",
                "createDeptName":"",
                "createTime":0,
                "creatorCode":"",
                "creatorName":"",
                "deployEnv":"test",
                "deployStatus":2,
                "desireDeployId":"a2b5239425204d2b8eb565e9b27d3f4c",
                "emails":"",
                "env":[{"isNew":true,"key":"qqq","value":"qq"}],
                "id":"f8e19747b3e24975ad481f3f2667cfa3",
                "instanceNumber":1,
                "ipAlias":[{"isNew":true,"key":"111","value":"127.0.0.1","desc":"111"},{"isNew":true,"key":"222","value":"127.0.0.1","desc":"222"}],
                "lastDeploy":null,
                "lastDeployId":"a5d4950f096f4a97bd585f9bb75d3a96",
                "mark":"icmp-web-v2",
                "memorySize":256,
                "message":" ",
                "name":"智慧社区前端V2",
                "pageNo":0,
                "pageSize":0,
                "path":["http://10.255.228.101/icmp-web"],
                "runState":0,
                "state":4,
                "stateTxt":"故障",
                "status":null,
                "updateTime":0,
                "updaterCode":"",
                "updaterName":"",
                "uploadType":0,
                "version":"tag-master-v2.0.5.112301",
                "whiteList":""
            },
            {
                "baseImage":"",
                "createDeptCode":"",
                "createDeptName":"",
                "createTime":0,
                "creatorCode":"",
                "creatorName":"",
                "deployEnv":"test",
                "deployStatus":0,
                "desireDeployId":"",
                "emails":"",
                "env":"",
                "id":"3ca9589d9d5c4ac1abf60d8b7c003806",
                "instanceNumber":0,
                "ipAlias":"",
                "lastDeploy":null,
                "lastDeployId":"",
                "mark":"cloud-eureka-server",
                "memorySize":0,
                "message":"",
                "name":"海豚镜像冒烟测试",
                "pageNo":0,
                "pageSize":0,
                "path":"",
                "runState":0,
                "state":5,
                "stateTxt":"初始",
                "status":null,
                "updateTime":0,
                "updaterCode":"",
                "updaterName":"",
                "uploadType":0,
                "version":"",
                "whiteList":""
            },
            {
                "baseImage":"",
                "createDeptCode":"",
                "createDeptName":"",
                "createTime":0,
                "creatorCode":"",
                "creatorName":"",
                "deployEnv":"test",
                "deployStatus":0,
                "desireDeployId":"",
                "emails":"",
                "env":"",
                "id":"fa15cc1273c84999ad22a383428e6bb0",
                "instanceNumber":0,
                "ipAlias":"",
                "lastDeploy":null,
                "lastDeployId":"",
                "mark":"aaa1231231",
                "memorySize":0,
                "message":"",
                "name":"123232",
                "pageNo":0,
                "pageSize":0,
                "path":"",
                "runState":0,
                "state":5,
                "stateTxt":"初始",
                "status":null,
                "updateTime":0,
                "updaterCode":"",
                "updaterName":"",
                "uploadType":0,
                "version":"",
                "whiteList":""
            },
            {
                "baseImage":"",
                "createDeptCode":"",
                "createDeptName":"",
                "createTime":0,
                "creatorCode":"",
                "creatorName":"",
                "deployEnv":"test",
                "deployStatus":2,
                "desireDeployId":"5d4fbcff29874eaca3e411988e038ef3",
                "emails":"",
                "env":"",
                "id":"efe07e66eae940f397a3d771a66c3073",
                "instanceNumber":0,
                "ipAlias":"",
                "lastDeploy":null,
                "lastDeployId":"",
                "mark":"xxl-job-executor",
                "memorySize":0,
                "message":"",
                "name":"定时调度平台-执行器",
                "pageNo":0,
                "pageSize":0,
                "path":"",
                "runState":0,
                "state":5,
                "stateTxt":"初始",
                "status":null,
                "updateTime":0,
                "updaterCode":"",
                "updaterName":"",
                "uploadType":0,
                "version":"",
                "whiteList":""
            },
            {
                "baseImage":"dolphin/tomcat:8.5.27",
                "createDeptCode":"",
                "createDeptName":"",
                "createTime":0,
                "creatorCode":"",
                "creatorName":"",
                "deployEnv":"test",
                "deployStatus":2,
                "desireDeployId":"6779dc8eacf64f3780faa64b7e9c7f4f",
                "emails":"1617567890",
                "env":[{"value":"-server -Xms307m -Xmx614m -XX:NewRatio=3 -XX:MetaspaceSize=102m -XX:MaxMetaspaceSize=410m -XX:+UseConcMarkSweepGC -XX:+CMSParallelRemarkEnabled -XX:+UseCMSInitiatingOccupancyOnly -XX:CMSInitiatingOccupancyFraction=70 -XX:+HeapDumpOnOutOfMemoryError -XX:HeapDumpPath=/log/oom-${HOSTNAME}.hprof -XX:+PrintGCDetails -XX:+PrintGCDateStamps -Xloggc:/log/gcdetail-${HOSTNAME}.log -XX:+UseGCLogFileRotation -XX:NumberOfGCLogFiles=5 -XX:GCLogFileSize=10M -XX:+PrintTenuringDistribution  -XX:OnOutOfMemoryError=\"curl ${PLATFORM_DOMAIN}/${PLATFORM_PATH}/api/project/alarm?projectName=${PROJECT_NAME}\"","key":"JAVA_OPTS"}],
                "id":"fe5196f2e315459fb45373c224fbaeb1",
                "instanceNumber":1,
                "ipAlias":[{"isNew":true,"key":"111","value":"127.0.0.1","desc":"127.0.0.1"}],
                "lastDeploy":null,
                "lastDeployId":"b914d43ced2e4d998232db9839921d5c",
                "mark":"metrics-test",
                "memorySize":1024,
                "message":" ",
                "name":"metrics-test",
                "pageNo":0,
                "pageSize":0,
                "path":["http://10.255.228.101/metrics-test"],
                "runState":0,
                "state":0,
                "stateTxt":"已停止",
                "status":null,
                "updateTime":0,
                "updaterCode":"",
                "updaterName":"",
                "uploadType":0,
                "version":"1.0.0.4",
                "whiteList":""
            }
        ],
        "pageNo":0,
        "pageSize":10,
        "total":21,
        "totalPages":3
    },
    "status":200,
    "timestamp":1544084494952
}
